{
	"title"		:	"DPP - DBot Prop Protection",
	"type"		:	"tool",
	"tags"		:	[ "build" ],
    "ignore"    :   [
        "*.psd",
        "*.vcproj",
        "*.svn*",
        "*.git*",
        ".gitlab-ci.yml",
        "moon*",
        "lua_src*",
        "build.sh",
        "README.md",
        "lint.sh",
        ".vscode*",
        "LICENSE",
        "*.md",
        "vll.lua"
    ]
}